{"success":true,"courses":[{"id":"c4e06ec6-21b4-470c-8964-bc8a55a5321c","title":".","description":".","image":"https://via.placeholder.com/400x225?text=Course+Image","category":"Economics","categoryId":"d78b5017-1dac-4295-ba74-01a20b245ab6","rating":0,"reviews":0,"duration":"0 lectures","level":"Beginner","price":"20000.00","discount":null,"instructorName":"zalohub","instructorImg":"https://images.unsplash.com/photo-1599566150163-29194dcaad36?ixlib=rb-4.0.3&auto=format&fit=crop&w=256&q=80","learnerCount":0,"createdAt":"2026-02-03T04:29:18.200Z"}],"pagination":{"page":1,"limit":1,"totalCount":50,"totalPages":50}}